9999999999991999999999999
9999999999919199999999999
9999999999191919999999999
9999999991919191999999999
3939393909090909096969696
9393939090909090909696969
9939390909090909090969699
9993909090909090909096999
9999090909090909090909999
9995909090909090909094999
9959590909090909090949499
9595959090909090909494949
5959595909090909094949494
9999999992929292999999999
9999999999292929999999999
9999999999929299999999999
9999999999992999999999999


